{
    "styles": [
        {
            "name": "Page Title",
            "font": "UtopiaStd-BlackHeadline",
            "size": 72,
            "color": {
                "red": 0,
                "green": 0.1058823529,
                "blue": 0.2117647059,
                "alpha": 1
            },
            "alignment": 4,
            "spacing": 0,
            "lineHeight": 82,
            "textTransform": 0
        },
        {
            "name": "H4: Introduction Copy",
            "font": "MrEavesModOT-Reg",
            "size": 24,
            "color": { "red": 0, "green": 0, "blue": 0, "alpha": 1 },
            "alignment": 2,
            "spacing": null,
            "lineHeight": 28,
            "textTransform": 0
        },
        {
            "name": "H5: Body Copy",
            "font": "MrEavesModOT-Reg",
            "size": 20,
            "color": { "red": 0, "green": 0, "blue": 0, "alpha": 1 },
            "alignment": 2,
            "spacing": 0,
            "lineHeight": 24,
            "textTransform": 0
        },
        {
            "name": "H6: Heavy Green Copy",
            "font": "MrEavesModOT-Heavy",
            "size": 20,
            "color": {
                "red": 0,
                "green": 0.6588235294,
                "blue": 0.5294117647,
                "alpha": 1
            },
            "alignment": 4,
            "spacing": 0,
            "lineHeight": 29,
            "textTransform": 1
        },
        {
            "name": "H2: Subcopy",
            "font": "MrEavesModOT-Bold",
            "size": 32,
            "color": {
                "red": 0,
                "green": 0.6588235294,
                "blue": 0.5294117647,
                "alpha": 1
            },
            "alignment": 4,
            "spacing": null,
            "lineHeight": 34,
            "textTransform": 0
        },
        {
            "name": "H3: Sub Title",
            "font": "UtopiaStd-BlackHeadline",
            "size": 28,
            "color": {
                "red": 0,
                "green": 0.1058823529,
                "blue": 0.2117647059,
                "alpha": 1
            },
            "alignment": 0,
            "spacing": null,
            "lineHeight": 34,
            "textTransform": 0
        },
        {
            "name": "H2: Subcopy",
            "font": "MrEavesModOT-Bold",
            "size": 32,
            "color": {
                "red": 0,
                "green": 0.1058823529,
                "blue": 0.2117647059,
                "alpha": 1
            },
            "alignment": 2,
            "spacing": null,
            "lineHeight": 32,
            "textTransform": 0
        },
        {
            "name": "M5: Body Copy",
            "font": "MrEavesModOT-Reg",
            "size": 20,
            "color": { "red": 1, "green": 1, "blue": 1, "alpha": 1 },
            "alignment": 0,
            "spacing": 0,
            "lineHeight": 24,
            "textTransform": 0
        },
        {
            "name": "M5: Body Copy",
            "font": "MrEavesModOT-Reg",
            "size": 18,
            "color": { "red": 0, "green": 0, "blue": 0, "alpha": 1 },
            "alignment": 2,
            "spacing": 0,
            "lineHeight": 22,
            "textTransform": 0
        },
        {
            "name": "M2:: Subcopy",
            "font": "MrEavesModOT-Bold",
            "size": 24,
            "color": {
                "red": 0,
                "green": 0.1058823529,
                "blue": 0.2117647059,
                "alpha": 1
            },
            "alignment": 2,
            "spacing": null,
            "lineHeight": 32,
            "textTransform": 0
        },
        {
            "name": "M6: Heavy Green",
            "font": "MrEavesModOT-Heavy",
            "size": 20,
            "color": {
                "red": 0,
                "green": 0.6588235294,
                "blue": 0.5294117647,
                "alpha": 1
            },
            "alignment": 4,
            "spacing": 0,
            "lineHeight": 29,
            "textTransform": 1
        },
        {
            "name": "M4: Introduction",
            "font": "MrEavesModOT-Reg",
            "size": 24,
            "color": { "red": 0, "green": 0, "blue": 0, "alpha": 1 },
            "alignment": 2,
            "spacing": null,
            "lineHeight": 0,
            "textTransform": 0
        },
        {
            "name": "M1: Header",
            "font": "UtopiaStd-BlackHeadline",
            "size": 36,
            "color": {
                "red": 0,
                "green": 0.1058823529,
                "blue": 0.2117647059,
                "alpha": 1
            },
            "alignment": 4,
            "spacing": 0,
            "lineHeight": 42,
            "textTransform": 0
        },
        {
            "name": "M3: Header 2",
            "font": "UtopiaStd-BlackHeadline",
            "size": 20,
            "color": {
                "red": 0,
                "green": 0.1058823529,
                "blue": 0.2117647059,
                "alpha": 1
            },
            "alignment": 2,
            "spacing": 0,
            "lineHeight": 0,
            "textTransform": 0
        },
        {
            "name": "Button Text",
            "font": "MrEavesModOT-Heavy",
            "size": 20,
            "color": { "red": 1, "green": 1, "blue": 1, "alpha": 1 },
            "alignment": 2,
            "spacing": 0,
            "lineHeight": 0,
            "textTransform": 1
        },
        {
            "name": "Key Area Title",
            "font": "UtopiaStd-BlackHeadline",
            "size": 28,
            "color": {
                "red": 0,
                "green": 0.1058823529,
                "blue": 0.2117647059,
                "alpha": 1
            },
            "alignment": 2,
            "spacing": null,
            "lineHeight": 34,
            "textTransform": 0
        },
        {
            "name": "Key Area Body",
            "font": "MrEavesModOT-Reg",
            "size": 20,
            "color": { "red": 0, "green": 0, "blue": 0, "alpha": 1 },
            "alignment": 2,
            "spacing": 0,
            "lineHeight": 24,
            "textTransform": 0
        },
        {
            "name": "Intro Title",
            "font": "MrEavesModOT-Bold",
            "size": 32,
            "color": { "red": 0, "green": 0, "blue": 0, "alpha": 1 },
            "alignment": 2,
            "spacing": null,
            "lineHeight": 32,
            "textTransform": 0
        },
        {
            "name": "Introduction Content",
            "font": "MrEavesModOT-Reg",
            "size": 24,
            "color": { "red": 0, "green": 0, "blue": 0, "alpha": 1 },
            "alignment": 2,
            "spacing": null,
            "lineHeight": 28,
            "textTransform": 0
        },
        {
            "name": "Utility",
            "font": "MrEavesModOT-Bold",
            "size": 18,
            "color": {
                "red": 0.4980392157,
                "green": 0.5529411765,
                "blue": 0.6039215686,
                "alpha": 1
            },
            "alignment": 2,
            "spacing": 0,
            "lineHeight": 24,
            "textTransform": 0
        },
        {
            "name": "Menu Link",
            "font": "MrEavesModOT-Reg",
            "size": 24,
            "color": { "red": 0, "green": 0, "blue": 0, "alpha": 1 },
            "alignment": 0,
            "spacing": null,
            "lineHeight": 0,
            "textTransform": 0
        },
        {
            "name": "Site Title Mobile",
            "font": "MrEavesModOT-Heavy",
            "size": 14,
            "color": {
                "red": 0,
                "green": 0.6588235294,
                "blue": 0.5294117647,
                "alpha": 1
            },
            "alignment": 4,
            "spacing": 0,
            "lineHeight": 0,
            "textTransform": 1
        },
        {
            "name": "Site Description Mobile",
            "font": "MrEavesModOT-Reg",
            "size": 14,
            "color": { "red": 0, "green": 0, "blue": 0, "alpha": 1 },
            "alignment": 0,
            "spacing": 0,
            "lineHeight": 16,
            "textTransform": 0
        },
        {
            "name": "Page Title Mobile",
            "font": "UtopiaStd-BlackHeadline",
            "size": 36,
            "color": {
                "red": 0,
                "green": 0.1058823529,
                "blue": 0.2117647059,
                "alpha": 1
            },
            "alignment": 4,
            "spacing": 0,
            "lineHeight": 42,
            "textTransform": 0
        },
        {
            "name": "Key Area Title Mobile",
            "font": "UtopiaStd-BlackHeadline",
            "size": 20,
            "color": {
                "red": 0,
                "green": 0.1058823529,
                "blue": 0.2117647059,
                "alpha": 1
            },
            "alignment": 2,
            "spacing": 0,
            "lineHeight": 0,
            "textTransform": 0
        }
    ]
}
